<?xml version="1.0" standalone="no"?>
<!DOCTYPE svg PUBLIC "-//W3C//DTD SVG 1.1//EN" "http://www.w3.org/Graphics/SVG/1.1/DTD/svg11.dtd" >
<svg xmlns="http://www.w3.org/2000/svg">
<metadata>Generated by IcoMoon</metadata>
<defs>
<font id="fridge" horiz-adv-x="1024">
<font-face units-per-em="1024" ascent="960" descent="-64" />
<missing-glyph horiz-adv-x="1024" />
<glyph unicode="&#x20;" horiz-adv-x="512" d="" />
<glyph unicode="&#xe900;" glyph-name="pencil" d="M752.128 836.557c-96.973 70.605-165.99 69.069-192.205 64.819-7.373-1.178-13.568-5.427-17.92-11.418l-352.41-486.246c-14.182-19.558-22.374-42.803-23.654-66.918l-15.155-287.949c-1.075-20.736 19.558-35.738 38.912-28.314l269.107 102.912c22.682 8.704 42.394 23.808 56.627 43.469l352.256 486.093c4.557 6.298 6.4 13.978 5.12 21.658-4.301 26.931-24.934 92.262-120.678 161.894zM459.622 180.992l-104.602-40.397c-4.096-1.587-8.653-0.307-11.315 3.174-13.466 17.152-29.491 34.15-55.040 52.736-25.549 18.534-46.643 28.57-67.072 36.147-4.096 1.536-6.707 5.427-6.451 9.83l6.246 111.923 28.109 38.656c0 0 62.925 8.653 145.050-51.098 82.022-59.699 93.235-122.266 93.235-122.266l-28.16-38.707z" />
<glyph unicode="&#xe9c8;" glyph-name="upload" d="M480 256h-480v-256h960v256h-480zM896 128h-128v64h128v-64zM224 640l256 256 256-256h-160v-320h-192v320z" />
<glyph unicode="&#xea10;" glyph-name="checkmark" d="M864 832l-480-480-224 224-160-160 384-384 640 640z" />
</font></defs></svg>